{
    "key": "group_5b0c1341ed715",
    "title": "Single View",
    "location": [
        [
            {
                "param": "post_type",
                "operator": "==",
                "value": "post"
            }
        ],
        [
            {
                "param": "post_type",
                "operator": "==",
                "value": "broadcast"
            }
        ],
        [
            {
                "param": "post_type",
                "operator": "==",
                "value": "sermon"
            }
        ],
        [
            {
                "param": "post_type",
                "operator": "==",
                "value": "story"
            }
        ]
    ],
    "menu_order": 1,
    "position": "side",
    "style": "default",
    "label_placement": "top",
    "instruction_placement": "label",
    "hide_on_screen": "",
    "active": 1,
    "description": "",
    "fields": [
        {
            "key": "field_5b0c1362e0d9a",
            "label": "Hero Image",
            "name": "cover_image",
            "type": "image",
            "instructions": "",
            "required": 0,
            "conditional_logic": 0,
            "wrapper": {
                "width": "",
                "class": "",
                "id": ""
            },
            "return_format": "array",
            "preview_size": "thumbnail",
            "library": "all",
            "min_width": "",
            "min_height": "",
            "min_size": "",
            "max_width": "",
            "max_height": "",
            "max_size": "",
            "mime_types": ""
        }
    ],
    "modified": 1530097246
}